<mxfile host="app.diagrams.net" modified="2022-05-11T02:04:06.185Z" agent="5.0 (Windows NT 10.0; Win64; x64) AppleWebKit/537.36 (KHTML, like Gecko) Chrome/101.0.4951.54 Safari/537.36" etag="IhYM2xKl6CXOpuptaxaN" version="18.0.2" type="gitlab">
  <diagram id="SLAJbbJH5xljoYqHCnay" name="Page-1">
    <mxGraphModel dx="1662" dy="11706" grid="1" gridSize="10" guides="1" tooltips="1" connect="1" arrows="1" fold="1" page="1" pageScale="10" pageWidth="850" pageHeight="1100" math="0" shadow="0">
      <root>
        <mxCell id="0" />
        <mxCell id="1" parent="0" />
        <mxCell id="rfdPFDbCPgVuHhBeu341-17" style="edgeStyle=orthogonalEdgeStyle;rounded=0;orthogonalLoop=1;jettySize=auto;html=1;fontFamily=Helvetica;fontSize=18;" parent="1" source="rfdPFDbCPgVuHhBeu341-2" target="rfdPFDbCPgVuHhBeu341-15" edge="1">
          <mxGeometry relative="1" as="geometry" />
        </mxCell>
        <mxCell id="rfdPFDbCPgVuHhBeu341-2" value="消息发送（事件消息、执行计划）" style="rounded=1;whiteSpace=wrap;html=1;" parent="1" vertex="1">
          <mxGeometry x="390" y="-20" width="130" height="160" as="geometry" />
        </mxCell>
        <mxCell id="rfdPFDbCPgVuHhBeu341-31" style="edgeStyle=orthogonalEdgeStyle;rounded=0;orthogonalLoop=1;jettySize=auto;html=1;exitX=0.5;exitY=1;exitDx=0;exitDy=0;fontFamily=Helvetica;fontSize=18;entryX=0.5;entryY=0;entryDx=0;entryDy=0;" parent="1" source="rfdPFDbCPgVuHhBeu341-7" target="rfdPFDbCPgVuHhBeu341-16" edge="1">
          <mxGeometry relative="1" as="geometry">
            <mxPoint x="460" y="580" as="targetPoint" />
          </mxGeometry>
        </mxCell>
        <mxCell id="rfdPFDbCPgVuHhBeu341-7" value="&lt;span style=&quot;font-size: 18px;&quot;&gt;SendMsg&lt;/span&gt;&lt;br&gt;TaskId&lt;br&gt;EventId&lt;br&gt;CommType&lt;br&gt;....&lt;br&gt;retry(新增重试)&lt;br&gt;retryEndTime(重试操作最晚时间限制)&lt;br&gt;errorReport是否报告失败" style="rounded=0;whiteSpace=wrap;html=1;" parent="1" vertex="1">
          <mxGeometry x="380" y="390" width="160" height="170" as="geometry" />
        </mxCell>
        <mxCell id="rfdPFDbCPgVuHhBeu341-30" style="edgeStyle=orthogonalEdgeStyle;rounded=0;orthogonalLoop=1;jettySize=auto;html=1;exitX=0.5;exitY=1;exitDx=0;exitDy=0;entryX=0.5;entryY=0;entryDx=0;entryDy=0;fontFamily=Helvetica;fontSize=18;" parent="1" source="rfdPFDbCPgVuHhBeu341-15" target="rfdPFDbCPgVuHhBeu341-7" edge="1">
          <mxGeometry relative="1" as="geometry" />
        </mxCell>
        <mxCell id="rfdPFDbCPgVuHhBeu341-15" value="构建消息&lt;br&gt;&lt;font style=&quot;font-size: 12px;&quot;&gt;根据配置查询修改重试次数&lt;br&gt;估算重试有效期&lt;/font&gt;" style="rounded=0;whiteSpace=wrap;html=1;fontSize=18;" parent="1" vertex="1">
          <mxGeometry x="370" y="180" width="170" height="177.5" as="geometry" />
        </mxCell>
        <mxCell id="rfdPFDbCPgVuHhBeu341-32" style="edgeStyle=orthogonalEdgeStyle;rounded=0;orthogonalLoop=1;jettySize=auto;html=1;exitX=0.5;exitY=1;exitDx=0;exitDy=0;fontFamily=Helvetica;fontSize=18;entryX=0.456;entryY=0;entryDx=0;entryDy=0;entryPerimeter=0;" parent="1" source="rfdPFDbCPgVuHhBeu341-16" target="rfdPFDbCPgVuHhBeu341-33" edge="1">
          <mxGeometry relative="1" as="geometry">
            <mxPoint x="460" y="790" as="targetPoint" />
          </mxGeometry>
        </mxCell>
        <mxCell id="rfdPFDbCPgVuHhBeu341-16" value="EmailMsgSendService&lt;br&gt;&lt;br&gt;处理逻辑（增加失败重试）" style="rounded=0;whiteSpace=wrap;html=1;fontSize=12;" parent="1" vertex="1">
          <mxGeometry x="380" y="700" width="160" height="130" as="geometry" />
        </mxCell>
        <mxCell id="rfdPFDbCPgVuHhBeu341-25" value="发送" style="text;html=1;align=center;verticalAlign=middle;resizable=0;points=[];autosize=1;strokeColor=none;fillColor=none;fontSize=18;fontFamily=Helvetica;" parent="1" vertex="1">
          <mxGeometry x="400" y="830" width="50" height="30" as="geometry" />
        </mxCell>
        <mxCell id="rfdPFDbCPgVuHhBeu341-58" style="edgeStyle=orthogonalEdgeStyle;rounded=0;orthogonalLoop=1;jettySize=auto;html=1;entryX=0.5;entryY=0;entryDx=0;entryDy=0;fontFamily=Helvetica;fontSize=14;" parent="1" source="rfdPFDbCPgVuHhBeu341-26" target="rfdPFDbCPgVuHhBeu341-27" edge="1">
          <mxGeometry relative="1" as="geometry" />
        </mxCell>
        <mxCell id="rfdPFDbCPgVuHhBeu341-26" value="接受消息发送后的回执" style="rounded=1;whiteSpace=wrap;html=1;fontFamily=Helvetica;fontSize=18;" parent="1" vertex="1">
          <mxGeometry x="965" y="-20" width="120" height="130" as="geometry" />
        </mxCell>
        <mxCell id="rfdPFDbCPgVuHhBeu341-49" style="edgeStyle=orthogonalEdgeStyle;rounded=0;orthogonalLoop=1;jettySize=auto;html=1;exitX=0.5;exitY=1;exitDx=0;exitDy=0;fontFamily=Helvetica;fontSize=14;" parent="1" source="rfdPFDbCPgVuHhBeu341-27" edge="1">
          <mxGeometry relative="1" as="geometry">
            <mxPoint x="1025" y="320" as="targetPoint" />
          </mxGeometry>
        </mxCell>
        <mxCell id="rfdPFDbCPgVuHhBeu341-27" value="根据BizId，BizType，MemberId查询&lt;br&gt;EmailMessage" style="rounded=0;whiteSpace=wrap;html=1;fontFamily=Helvetica;fontSize=18;" parent="1" vertex="1">
          <mxGeometry x="960" y="170" width="130" height="130" as="geometry" />
        </mxCell>
        <mxCell id="rfdPFDbCPgVuHhBeu341-55" style="edgeStyle=orthogonalEdgeStyle;rounded=0;orthogonalLoop=1;jettySize=auto;html=1;exitX=0.5;exitY=1;exitDx=0;exitDy=0;entryX=0.556;entryY=-0.031;entryDx=0;entryDy=0;entryPerimeter=0;fontFamily=Helvetica;fontSize=14;" parent="1" source="rfdPFDbCPgVuHhBeu341-29" target="rfdPFDbCPgVuHhBeu341-16" edge="1">
          <mxGeometry relative="1" as="geometry" />
        </mxCell>
        <mxCell id="rfdPFDbCPgVuHhBeu341-29" value="&lt;font style=&quot;font-size: 14px;&quot;&gt;retryTime-1&lt;br&gt;sendMsgService重发消息&lt;/font&gt;" style="rounded=0;whiteSpace=wrap;html=1;fontFamily=Helvetica;fontSize=18;" parent="1" vertex="1">
          <mxGeometry x="951.25" y="530" width="158.75" height="80" as="geometry" />
        </mxCell>
        <mxCell id="rfdPFDbCPgVuHhBeu341-34" value="重试次数内发送成功" style="edgeStyle=orthogonalEdgeStyle;rounded=0;orthogonalLoop=1;jettySize=auto;html=1;fontFamily=Helvetica;fontSize=18;" parent="1" source="rfdPFDbCPgVuHhBeu341-33" edge="1">
          <mxGeometry x="0.0025" y="111" relative="1" as="geometry">
            <mxPoint x="470" y="1070" as="targetPoint" />
            <mxPoint y="-5" as="offset" />
          </mxGeometry>
        </mxCell>
        <mxCell id="rfdPFDbCPgVuHhBeu341-36" style="edgeStyle=orthogonalEdgeStyle;rounded=0;orthogonalLoop=1;jettySize=auto;html=1;exitX=1;exitY=0.5;exitDx=0;exitDy=0;entryX=0;entryY=0.5;entryDx=0;entryDy=0;fontFamily=Helvetica;fontSize=18;" parent="1" source="rfdPFDbCPgVuHhBeu341-33" target="rfdPFDbCPgVuHhBeu341-35" edge="1">
          <mxGeometry relative="1" as="geometry" />
        </mxCell>
        <mxCell id="rfdPFDbCPgVuHhBeu341-33" value="发送" style="rhombus;whiteSpace=wrap;html=1;fontFamily=Helvetica;fontSize=18;" parent="1" vertex="1">
          <mxGeometry x="370" y="880" width="197.5" height="110" as="geometry" />
        </mxCell>
        <mxCell id="rfdPFDbCPgVuHhBeu341-37" style="edgeStyle=orthogonalEdgeStyle;rounded=0;orthogonalLoop=1;jettySize=auto;html=1;exitX=0.5;exitY=1;exitDx=0;exitDy=0;fontFamily=Helvetica;fontSize=18;" parent="1" source="rfdPFDbCPgVuHhBeu341-35" edge="1">
          <mxGeometry relative="1" as="geometry">
            <mxPoint x="750" y="330" as="targetPoint" />
          </mxGeometry>
        </mxCell>
        <mxCell id="rfdPFDbCPgVuHhBeu341-35" value="超过重试次数依然无法发送成功" style="rounded=0;whiteSpace=wrap;html=1;fontFamily=Helvetica;fontSize=18;" parent="1" vertex="1">
          <mxGeometry x="670" y="180" width="160" height="120" as="geometry" />
        </mxCell>
        <mxCell id="rfdPFDbCPgVuHhBeu341-40" style="edgeStyle=orthogonalEdgeStyle;rounded=0;orthogonalLoop=1;jettySize=auto;html=1;fontFamily=Helvetica;fontSize=14;" parent="1" source="rfdPFDbCPgVuHhBeu341-39" edge="1">
          <mxGeometry relative="1" as="geometry">
            <mxPoint x="750" y="490" as="targetPoint" />
          </mxGeometry>
        </mxCell>
        <mxCell id="rfdPFDbCPgVuHhBeu341-39" value="&lt;font style=&quot;font-size: 14px;&quot;&gt;根据errorReport判断&lt;br&gt;是否需要报告错误&lt;/font&gt;" style="rhombus;whiteSpace=wrap;html=1;fontFamily=Helvetica;fontSize=18;" parent="1" vertex="1">
          <mxGeometry x="645" y="330" width="210" height="120" as="geometry" />
        </mxCell>
        <mxCell id="rfdPFDbCPgVuHhBeu341-41" value="是" style="text;html=1;align=center;verticalAlign=middle;resizable=0;points=[];autosize=1;strokeColor=none;fillColor=none;fontSize=14;fontFamily=Helvetica;" parent="1" vertex="1">
          <mxGeometry x="755" y="460" width="30" height="20" as="geometry" />
        </mxCell>
        <mxCell id="rfdPFDbCPgVuHhBeu341-42" value="写MQ" style="rounded=0;whiteSpace=wrap;html=1;fontFamily=Helvetica;fontSize=14;" parent="1" vertex="1">
          <mxGeometry x="655" y="490" width="200" height="80" as="geometry" />
        </mxCell>
        <mxCell id="rfdPFDbCPgVuHhBeu341-45" style="edgeStyle=orthogonalEdgeStyle;rounded=0;orthogonalLoop=1;jettySize=auto;html=1;entryX=0.5;entryY=0;entryDx=0;entryDy=0;fontFamily=Helvetica;fontSize=14;" parent="1" source="rfdPFDbCPgVuHhBeu341-44" target="rfdPFDbCPgVuHhBeu341-29" edge="1">
          <mxGeometry relative="1" as="geometry" />
        </mxCell>
        <mxCell id="rfdPFDbCPgVuHhBeu341-47" style="edgeStyle=orthogonalEdgeStyle;rounded=0;orthogonalLoop=1;jettySize=auto;html=1;exitX=0;exitY=0.5;exitDx=0;exitDy=0;entryX=1;entryY=0.5;entryDx=0;entryDy=0;fontFamily=Helvetica;fontSize=14;" parent="1" source="rfdPFDbCPgVuHhBeu341-44" target="rfdPFDbCPgVuHhBeu341-35" edge="1">
          <mxGeometry relative="1" as="geometry" />
        </mxCell>
        <mxCell id="rfdPFDbCPgVuHhBeu341-44" value="&lt;span style=&quot;font-size: 14px;&quot;&gt;判断&lt;br&gt;retryTime次数&amp;amp;&lt;br&gt;retryEndTime时间&lt;/span&gt;" style="rhombus;whiteSpace=wrap;html=1;fontFamily=Helvetica;fontSize=18;" parent="1" vertex="1">
          <mxGeometry x="920" y="330" width="220" height="140" as="geometry" />
        </mxCell>
        <mxCell id="rfdPFDbCPgVuHhBeu341-46" value="满足" style="text;html=1;align=center;verticalAlign=middle;resizable=0;points=[];autosize=1;strokeColor=none;fillColor=none;fontSize=14;fontFamily=Helvetica;" parent="1" vertex="1">
          <mxGeometry x="1030" y="480" width="40" height="20" as="geometry" />
        </mxCell>
        <mxCell id="rfdPFDbCPgVuHhBeu341-50" value="不满足" style="text;html=1;align=center;verticalAlign=middle;resizable=0;points=[];autosize=1;strokeColor=none;fillColor=none;fontSize=14;fontFamily=Helvetica;" parent="1" vertex="1">
          <mxGeometry x="870" y="310" width="60" height="20" as="geometry" />
        </mxCell>
        <mxCell id="rfdPFDbCPgVuHhBeu341-57" style="edgeStyle=orthogonalEdgeStyle;rounded=0;orthogonalLoop=1;jettySize=auto;html=1;fontFamily=Helvetica;fontSize=14;" parent="1" source="rfdPFDbCPgVuHhBeu341-56" edge="1">
          <mxGeometry relative="1" as="geometry">
            <mxPoint x="760" y="580" as="targetPoint" />
          </mxGeometry>
        </mxCell>
        <mxCell id="rfdPFDbCPgVuHhBeu341-56" value="业务系统订阅发送失败的消息" style="rounded=0;whiteSpace=wrap;html=1;fontFamily=Helvetica;fontSize=14;" parent="1" vertex="1">
          <mxGeometry x="700" y="760" width="120" height="60" as="geometry" />
        </mxCell>
      </root>
    </mxGraphModel>
  </diagram>
</mxfile>
